35246	40281
51621	58606
69243	80174
93642	105969
122032	137081
148847	157677
168573	189110
206433	222563
232249	249604
264888	295897
307143	321912
329432	357236
359695	364764
373839	394131
406903	415377
424026	442112
445473	465589
471309	485666
487801	494725
502358	514319
523357	545201
553769	569828
578250	597063
605133	620339
627226	640070
649311	660557
666486	681006
686805	708298
721733	734301
743985	755430
761430	781160
788841	804093
820176	834421
843305	857148
865515	876484
888414	902872
905614	913012
923571	958627
964434	984391
992407	1.0072e+06
1.01706e+06	1.02581e+06
1.03273e+06	1.05113e+06
1.0553e+06	1.07438e+06
1.08215e+06	1.10119e+06
1.10571e+06	1.11579e+06
1.12329e+06	1.13573e+06
1.14193e+06	1.15217e+06
1.15797e+06	1.16429e+06
1.16734e+06	1.17349e+06
1.17838e+06	1.18566e+06
1.19142e+06	1.2007e+06
1.2067e+06	1.22244e+06
1.22972e+06	1.24664e+06
1.25185e+06	1.26669e+06
1.27129e+06	1.27934e+06
1.2837e+06	1.29386e+06
1.29991e+06	1.30891e+06
1.31675e+06	1.32749e+06
1.33928e+06	1.35045e+06
1.35933e+06	1.36645e+06
1.36797e+06	1.37865e+06
1.3811e+06	1.3849e+06
1.38866e+06	1.39421e+06
1.39918e+06	1.4087e+06
1.41631e+06	1.43623e+06
1.44136e+06	1.46404e+06
1.47038e+06	1.47794e+06
1.4807e+06	1.48869e+06
1.49453e+06	1.50661e+06
1.51201e+06	1.52269e+06
1.53323e+06	1.54782e+06
1.55522e+06	1.56575e+06
1.58003e+06	1.59708e+06
1.60527e+06	1.63189e+06
1.63736e+06	1.67016e+06
1.67504e+06	1.695e+06
1.69988e+06	1.71328e+06
1.71797e+06	1.72552e+06
1.72821e+06	1.73734e+06
1.74333e+06	1.75153e+06
1.75921e+06	1.77128e+06
1.77941e+06	1.79484e+06
1.80405e+06	1.81881e+06
1.82557e+06	1.83837e+06
1.84605e+06	1.86189e+06
1.87185e+06	1.88047e+06
1.88738e+06	1.90307e+06
1.90786e+06	1.91684e+06
1.92184e+06	1.92971e+06
1.9332e+06	1.93896e+06
1.94301e+06	1.94945e+06
1.95452e+06	1.97397e+06
1.97825e+06	1.98618e+06
1.99117e+06	2.00838e+06
2.01265e+06	2.02526e+06
2.03047e+06	2.03794e+06
2.04342e+06	2.05237e+06
2.06011e+06	2.0675e+06
2.07663e+06	2.08966e+06
2.09622e+06	2.10227e+06
2.1087e+06	2.11467e+06
2.12271e+06	2.12923e+06
2.13275e+06	2.13795e+06
2.14295e+06	2.1572e+06
2.16608e+06	2.17888e+06
2.18183e+06	2.18932e+06
2.19448e+06	2.20037e+06
2.20252e+06	2.20792e+06
2.2092e+06	2.21563e+06
2.22583e+06	2.24408e+06
2.2476e+06	2.27077e+06
2.2778e+06	2.29649e+06
2.3009e+06	2.3147e+06
2.31971e+06	2.33247e+06
2.33499e+06	2.34051e+06
2.34603e+06	2.35559e+06
2.36247e+06	2.37319e+06
2.37719e+06	2.38539e+06
2.39295e+06	2.40183e+06
2.40599e+06	2.41919e+06
2.42488e+06	2.43761e+06
2.44892e+06	2.45465e+06
2.45681e+06	2.46431e+06
2.47102e+06	2.48581e+06
2.49248e+06	2.502e+06
2.50568e+06	2.51461e+06
2.51865e+06	2.52592e+06
2.53276e+06	2.54437e+06
2.55368e+06	2.56429e+06
2.56922e+06	2.58718e+06
2.59574e+06	2.60501e+06
2.60802e+06	2.61647e+06
2.62651e+06	2.63539e+06
2.64267e+06	2.65215e+06
2.6622e+06	2.67057e+06
2.68284e+06	2.70449e+06
2.7118e+06	2.74937e+06
2.75577e+06	2.7614e+06
2.76433e+06	2.77249e+06
2.77889e+06	2.78566e+06
2.79286e+06	2.80695e+06
2.81247e+06	2.82255e+06
2.83079e+06	2.84479e+06
2.84954e+06	2.86227e+06
2.86994e+06	2.87758e+06
2.88086e+06	2.8865e+06
2.8917e+06	2.89866e+06
2.90134e+06	2.90399e+06
2.91014e+06	2.91916e+06
2.92839e+06	2.93528e+06
2.94292e+06	2.95248e+06
2.9578e+06	2.96388e+06
2.9718e+06	2.98536e+06
2.99156e+06	3.00669e+06
3.01068e+06	3.0262e+06
3.02952e+06	3.04164e+06
3.04709e+06	3.05976e+06
3.06368e+06	3.06956e+06
3.07352e+06	3.08088e+06
3.09169e+06	3.10531e+06
3.113e+06	3.12351e+06
3.13087e+06	3.13947e+06
3.14236e+06	3.14979e+06
3.16388e+06	3.17956e+06
3.1884e+06	3.19469e+06
3.20369e+06	3.21065e+06
3.21681e+06	3.2251e+06
3.22773e+06	3.23066e+06
3.23907e+06	3.24759e+06
3.25005e+06	3.25537e+06
3.27063e+06	3.28026e+06
3.28903e+06	3.29598e+06
3.30723e+06	3.31796e+06
3.33212e+06	3.3406e+06
3.34635e+06	3.35485e+06
3.35797e+06	3.36457e+06
3.37061e+06	3.37625e+06
3.38232e+06	3.40022e+06
3.40678e+06	3.41467e+06
3.41643e+06	3.42067e+06
3.42475e+06	3.43011e+06
3.4338e+06	3.45532e+06
3.4668e+06	3.4864e+06
3.4957e+06	3.51281e+06
3.51965e+06	3.52926e+06
3.53479e+06	3.54495e+06
3.55028e+06	3.56084e+06
3.56568e+06	3.57568e+06
3.58169e+06	3.60245e+06
3.605e+06	3.61605e+06
