174000.0	193999.0
196000.0	205999.0
208000.0	243999.0
254000.0	283999.0
286000.0	297999.0
300000.0	313999.0
316000.0	329999.0
334000.0	347999.0
352000.0	373999.0
382000.0	395999.0
398000.0	445999.0
452000.0	467999.0
472000.0	477999.0
482000.0	497999.0
502000.0	505999.0
524000.0	539999.0
544000.0	545999.0
558000.0	577999.0
596000.0	597999.0
600000.0	605999.0
610000.0	637999.0
640000.0	743999.0
746000.0	763999.0
766000.0	781999.0
786000.0	847999.0
852000.0	855999.0
860000.0	861999.0
866000.0	877999.0
880000.0	881999.0
884000.0	939999.0
946000.0	959999.0
968000.0	975999.0
980000.0	985999.0
1002000.0	1023999.0
1034000.0	1035999.0
1038000.0	1045999.0
1058000.0	1073999.0
1100000.0	1113999.0
1120000.0	1133999.0
1142000.0	1157999.0
1160000.0	1161999.0
1176000.0	1179999.0
1182000.0	1183999.0
1186000.0	1189999.0
1202000.0	1243999.0
1256000.0	1273999.0
1280000.0	1309999.0
1320000.0	1333999.0
1336000.0	1337999.0
1352000.0	1353999.0
1358000.0	1371999.0
1374000.0	1385999.0
1394000.0	1409999.0
1412000.0	1461999.0
1466000.0	1469999.0
1472000.0	1473999.0
1480000.0	1515999.0
1518000.0	1571999.0
1578000.0	1587999.0
1592000.0	1595999.0
1598000.0	1633999.0
1640000.0	1697999.0
1702000.0	1705999.0
1708000.0	1717999.0
1722000.0	1735999.0
1738000.0	1809999.0
1812000.0	1837999.0
1840000.0	1847999.0
1854000.0	1869999.0
1874000.0	1883999.0
1890000.0	1897999.0
1900000.0	1903999.0
1908000.0	1927999.0
1930000.0	1943999.0
1946000.0	1951999.0
1960000.0	2055998.9999999998
2058000.0	2131999.0
2136000.0	2147999.0
2150000.0	2187999.0
2194000.0	2203999.0
2206000.0	2209999.0
2212000.0	2225999.0
2228000.0	2233999.0
2248000.0	2261999.0
2264000.0	2295999.0
2298000.0	2335999.0
2338000.0	2343999.0
2350000.0	2371999.0
2376000.0	2383999.0
2390000.0	2401999.0
2406000.0	2409999.0
2414000.0	2415999.0
2418000.0	2449999.0
2462000.0	2463999.0
2466000.0	2473999.0
2476000.0	2487999.0
2490000.0	2493999.0
2496000.0	2509999.0
2512000.0	2521999.0
2528000.0	2547999.0
2550000.0	2587999.0
2590000.0	2595999.0
2600000.0	2609999.0
2616000.0	2621999.0
2624000.0	2691999.0
2694000.0	2695999.0
2702000.0	2715999.0
2722000.0	2725999.0
2742000.0	2749999.0
2754000.0	2769999.0
2772000.0	2773999.0
2776000.0	2781999.0
2788000.0	2797999.0
2800000.0	2801999.0
2824000.0	2827999.0
2838000.0	2847999.0
2852000.0	2861999.0
2872000.0	2887999.0
2898000.0	2903999.0
2906000.0	2907999.0
2910000.0	2913999.0
2934000.0	2935999.0
2938000.0	2951999.0
2954000.0	2957999.0
2960000.0	2977999.0
2982000.0	2991999.0
2994000.0	2995999.0
3000000.0	3029999.0
3032000.0	3033999.0
3038000.0	3053999.0
3056000.0	3097999.0
3106000.0	3119999.0
3122000.0	3129999.0
3138000.0	3153999.0
3156000.0	3173999.0
3180000.0	3189999.0
3192000.0	3193999.0
3200000.0	3209999.0
3222000.0	3237999.0
3244000.0	3253999.0
3256000.0	3265999.0
3268000.0	3307999.0
3320000.0	3327999.0
3330000.0	3347999.0
3350000.0	3375999.0
3378000.0	3379999.0
3382000.0	3405999.0
3418000.0	3429999.0
3436000.0	3443999.0
3446000.0	3447999.0
3450000.0	3451999.0
3460000.0	3463999.0
3468000.0	3481999.0
3486000.0	3499999.0
3506000.0	3517999.0
3532000.0	3543999.0
3550000.0	3553999.0
3558000.0	3567999.0
3570000.0	3573999.0
3578000.0	3613999.0
