196000.0	205999.0
208000.0	223999.0
226000.0	235999.0
238000.0	245999.0
254000.0	279999.0
282000.0	301999.0
304000.0	337999.0
344000.0	351999.0
354000.0	369999.0
372000.0	399999.0
402000.0	469999.0
472000.0	501999.0
504000.0	529999.0
534000.0	561999.0
566000.0	583999.0
586000.0	605999.0
610000.0	641999.0
644000.0	673999.0
676000.0	687999.0
690000.0	701999.0
704000.0	709999.0
712000.0	731999.0
736000.0	743999.0
746000.0	753999.0
756000.0	773999.0
780000.0	787999.0
790000.0	801999.0
804000.0	817999.0
820000.0	843999.0
848000.0	857999.0
860000.0	885999.0
888000.0	905999.0
908000.0	917999.0
922000.0	943999.0
946000.0	961999.0
966000.0	979999.0
984000.0	989999.0
994000.0	999999.0
1002000.0	1017999.0
1022000.0	1029999.0
1032000.0	1037999.0
1044000.0	1057999.0
1062000.0	1073999.0
1078000.0	1107999.0
1114000.0	1121999.0
1126000.0	1145999.0
1150000.0	1161999.0
1168000.0	1173999.0
1176000.0	1185999.0
1190000.0	1201999.0
1206000.0	1211999.0
1218000.0	1231999.0
1234000.0	1241999.0
1244000.0	1253999.0
1256000.0	1261999.0
1266000.0	1273999.0
1276000.0	1281999.0
1286000.0	1295999.0
1298000.0	1309999.0
1314000.0	1319999.0
1322000.0	1329999.0
1334000.0	1335999.0
1338000.0	1343999.0
1346000.0	1355999.0
1358000.0	1365999.0
1372000.0	1379999.0
1384000.0	1393999.0
1396000.0	1405999.0
1410000.0	1429999.0
1432000.0	1441999.0
1446000.0	1455999.0
1458000.0	1459999.0
1462000.0	1481999.0
1484000.0	1491999.0
1498000.0	1507999.0
1512000.0	1521999.0
1528000.0	1537999.0
1542000.0	1551999.0
1554000.0	1567999.0
1572000.0	1585999.0
1590000.0	1595999.0
1602000.0	1613999.0
1618000.0	1621999.0
1624000.0	1639999.0
1644000.0	1659999.0
1664000.0	1669999.0
1674000.0	1683999.0
1688000.0	1691999.0
1698000.0	1703999.0
1706000.0	1707999.0
1718000.0	1719999.0
1722000.0	1725999.0
1742000.0	1749999.0
1752000.0	1753999.0
1756000.0	1757999.0
1766000.0	1775999.0
1784000.0	1787999.0
1790000.0	1793999.0
1796000.0	1799999.0
1802000.0	1811999.0
1816000.0	1823999.0
1830000.0	1833999.0
1836000.0	1837999.0
1858000.0	1863999.0
1868000.0	1871999.0
1876000.0	1881999.0
1886000.0	1897999.0
1900000.0	1901999.0
1904000.0	1909999.0
1916000.0	1919999.0
1926000.0	1931999.0
1934000.0	1937999.0
1940000.0	1951999.0
1954000.0	1963999.0
1970000.0	1981999.0
1986000.0	2009999.0
2014000.0	2015999.0
2024000.0	2025999.0
2028000.0	2031999.0
2034000.0	2039999.0
2048000.0	2053998.9999999998
2060000.0	2067998.9999999998
2070000.0	2071998.9999999998
2074000.0	2083998.9999999998
2090000.0	2095998.9999999998
2100000.0	2111999.0
2116000.0	2121999.0
2124000.0	2127999.0
2130000.0	2133999.0
2138000.0	2149999.0
2156000.0	2157999.0
2160000.0	2163999.0
2166000.0	2175999.0
2180000.0	2189999.0
2192000.0	2195999.0
2198000.0	2209999.0
2212000.0	2219999.0
2226000.0	2233999.0
2236000.0	2249999.0
2252000.0	2261999.0
2264000.0	2271999.0
2278000.0	2285999.0
2292000.0	2297999.0
2300000.0	2307999.0
2310000.0	2311999.0
2314000.0	2331999.0
2336000.0	2353999.0
2356000.0	2363999.0
2372000.0	2377999.0
2380000.0	2385999.0
2392000.0	2417999.0
2422000.0	2427999.0
2432000.0	2441999.0
2444000.0	2445999.0
2452000.0	2463999.0
2470000.0	2475999.0
2478000.0	2479999.0
2482000.0	2487999.0
2492000.0	2501999.0
2504000.0	2511999.0
2514000.0	2517999.0
2522000.0	2523999.0
2526000.0	2531999.0
2536000.0	2541999.0
2544000.0	2547999.0
2550000.0	2555999.0
2560000.0	2569999.0
2576000.0	2581999.0
2584000.0	2593999.0
2598000.0	2603999.0
2612000.0	2615999.0
2622000.0	2627999.0
2632000.0	2639999.0
2648000.0	2655999.0
2662000.0	2663999.0
2666000.0	2671999.0
2676000.0	2681999.0
2686000.0	2689999.0
2696000.0	2699999.0
2704000.0	2711999.0
2714000.0	2715999.0
2722000.0	2729999.0
2734000.0	2741999.0
2746000.0	2751999.0
2754000.0	2755999.0
2762000.0	2769999.0
2778000.0	2781999.0
2796000.0	2797999.0
2822000.0	2823999.0
2830000.0	2833999.0
2854000.0	2855999.0
2902000.0	2903999.0
2906000.0	2907999.0
2922000.0	2923999.0
2938000.0	2941999.0
3040000.0	3041999.0
3086000.0	3091999.0
3104000.0	3109999.0
3124000.0	3125999.0
3136000.0	3139999.0
3150000.0	3151999.0
3164000.0	3165999.0
3302000.0	3303999.0
3388000.0	3391999.0
3452000.0	3453999.0
3462000.0	3463999.0
3496000.0	3499999.0
3502000.0	3505999.0
3524000.0	3527999.0
3530000.0	3531999.0
3550000.0	3551999.0
3560000.0	3561999.0
3572000.0	3573999.0
3582000.0	3585999.0
3590000.0	3591999.0
3622000.0	3625999.0
3654000.0	3655999.0
3676000.0	3677999.0
3680000.0	3681999.0
3698000.0	3699999.0
3722000.0	3725999.0
3730000.0	3731999.0
3770000.0	3773999.0
3788000.0	3789999.0
3794000.0	3795999.0
